Info: Starting: Create block symbol file (.bsf)
Info: qsys-generate /dt/code/fpga/quartus/cpu8080/probes/cpuprobe.qsys --block-symbol-file --output-directory=/dt/code/fpga/quartus/cpu8080/probes/cpuprobe --family="Cyclone IV E" --part=EP4CE6E22C8
Progress: Loading probes/cpuprobe.qsys
Progress: Reading input file
Progress: Adding in_system_sources_probes_0 [altera_in_system_sources_probes 19.1]
Progress: Parameterizing module in_system_sources_probes_0
Progress: Building connections
Progress: Parameterizing connections
Progress: Validating
Progress: Done reading input file
Info: qsys-generate succeeded.
Info: Finished: Create block symbol file (.bsf)
Info: 
Info: Starting: Create HDL design files for synthesis
Info: qsys-generate /dt/code/fpga/quartus/cpu8080/probes/cpuprobe.qsys --synthesis=VERILOG --output-directory=/dt/code/fpga/quartus/cpu8080/probes/cpuprobe/synthesis --family="Cyclone IV E" --part=EP4CE6E22C8
Progress: Loading probes/cpuprobe.qsys
Progress: Reading input file
Progress: Adding in_system_sources_probes_0 [altera_in_system_sources_probes 19.1]
Progress: Parameterizing module in_system_sources_probes_0
Progress: Building connections
Progress: Parameterizing connections
Progress: Validating
Progress: Done reading input file
Info: cpuprobe: Generating cpuprobe "cpuprobe" for QUARTUS_SYNTH
Info: in_system_sources_probes_0: "cpuprobe" instantiated altera_in_system_sources_probes "in_system_sources_probes_0"
Info: cpuprobe: Done "cpuprobe" with 2 modules, 2 files
Info: qsys-generate succeeded.
Info: Finished: Create HDL design files for synthesis
